Allison Horst - Exploring tree outcomes following fires
…
# Confirm the splits (Analysis/Assess/Total): 
ponderosa_split

<Training/Testing/Total>
<293297/73325/366622>

# Extract the training and testing sets: 
ponderosa_train <- training(ponderosa_split)
ponderosa_test <- testing(ponderosa_split)

# Check them out a bit: 
ponderosa_train %>% 
  count(yr_since_fire, live_dead)

# A tibble: 22 × 3
   yr_since_fire live_dead     n
           <dbl> <fct>     <int>
 1             0 0         39703
 2             0 1           539
 3             1 0         39002
 4             1 1         10448
 5             2 0         26944
 6             2 1         12825
 7             3 0         23498
 8             3 1         14932
 9             4 0          8728
10             4 1         15050
# ℹ 12 more rows

ponderosa_test %>% 
  count(yr_since_fire, live_dead)

# A tibble: 22 × 3
   yr_since_fire live_dead     n
           <dbl> <fct>     <int>
 1             0 0          9966
 2             0 1           150
 3             1 0          9877
 4             1 1          2521
 5             2 0          6764
 6             2 1          3269
 7             3 0          6055
 8             3 1          3569
 9             4 0          2075
10             4 1          3703
# ℹ 12 more rows
…
# Confirm the splits (Analysis/Assess/Total): 
trees_20_split

<Training/Testing/Total>
<830790/207698/1038488>

# Extract the training and testing sets: 
trees_20_train <- training(trees_20_split)
trees_20_test <- testing(trees_20_split)

# Check them out a bit: 
trees_20_train %>% 
  count(yr_since_fire, live_dead)

# A tibble: 22 × 3
   yr_since_fire live_dead     n
           <dbl> <fct>     <int>
 1             0 0         77618
 2             0 1          2901
 3             1 0         73504
 4             1 1         30484
 5             2 0         51634
 6             2 1         47293
 7             3 0         43228
 8             3 1         54833
 9             4 0         22443
10             4 1         55476
# ℹ 12 more rows

trees_20_test %>% 
  count(yr_since_fire, live_dead)

# A tibble: 22 × 3
   yr_since_fire live_dead     n
           <dbl> <fct>     <int>
 1             0 0         19508
 2             0 1           753
 3             1 0         18259
 4             1 1          7710
 5             2 0         12902
 6             2 1         11773
 7             3 0         10733
 8             3 1         13635
 9             4 0          5583
10             4 1         13967
# ℹ 12 more rows
…
